<?xml version="1.0" encoding="utf-8"?>
<!-- Generator: Adobe Illustrator 18.1.0, SVG Export Plug-In . SVG Version: 6.00 Build 0)  -->
<svg version="1.1" id="Layer_6" xmlns="http://www.w3.org/2000/svg" xmlns:xlink="http://www.w3.org/1999/xlink" x="0px" y="0px"
	 viewBox="0 0 90 50" enable-background="new 0 0 90 50" xml:space="preserve">
<g>
	<path fill="#D61B3F" d="M66.6,24.6c0-0.3,0-0.7,0-1c-0.1-4-1-7.9-2.5-11.3l0,0c-0.2-0.5-0.5-1-0.7-1.4c-0.1-0.1-0.1-0.3-0.2-0.4
		c-0.2-0.4-0.4-0.7-0.6-1.1c-0.1-0.2-0.2-0.4-0.3-0.5c0-0.1-0.1-0.1-0.1-0.2c0-0.1-0.1-0.2-0.1-0.2c-0.3-0.4-0.5-0.7-0.8-1
		C61,7.3,61,7.2,60.9,7.1c-0.3-0.4-0.6-0.8-1-1.1c-0.1-0.1-0.2-0.2-0.3-0.3c-0.3-0.3-0.6-0.6-0.9-0.9c-0.1-0.1-0.3-0.2-0.5-0.4
		C58,4.2,57.7,4,57.5,3.9c-0.3-0.2-0.5-0.4-0.8-0.5c-0.1-0.1-0.3-0.2-0.4-0.3c-0.4-0.2-0.8-0.4-1.2-0.6c0,0-0.1,0-0.1-0.1
		c-1.2-0.5-2.5-0.9-3.8-1H51h-0.1h-0.1c-0.2,0-0.4,0-0.6,0H39.8c-4.4,0-8.6,2.5-11.7,6.9c-3,4.4-4.7,10.2-4.7,16.3
		s1.7,11.9,4.7,16.3c3.1,4.5,7.2,6.9,11.7,6.9h10.4c0.2,0,0.4,0,0.6,0h0.1H51h0.1c0.6-0.1,1.2-0.2,1.8-0.3c0.2-0.1,0.4-0.1,0.7-0.2
		c0.1,0,0.3-0.1,0.4-0.1c1.2-0.4,2.4-1,3.6-1.8c0.1,0,0.1-0.1,0.2-0.1c0.3-0.2,0.7-0.5,1-0.8c0.1-0.1,0.3-0.2,0.4-0.4
		c0.2-0.1,0.3-0.3,0.5-0.4c0.5-0.5,1-1,1.5-1.6c1.9-2.4,3.4-5.3,4.3-8.6c0-0.1,0-0.1,0-0.2c0.2-0.6,0.3-1.3,0.5-1.9
		c0-0.1,0-0.1,0-0.2c0.1-0.7,0.3-1.4,0.4-2.1l0,0c0-0.2,0-0.3,0-0.5C66.6,27.3,66.7,25.9,66.6,24.6L66.6,24.6L66.6,24.6z M54.1,5.4
		c0.4,0.2,0.8,0.4,1.1,0.6c0,0,0.1,0,0.1,0.1c0.4,0.2,0.7,0.5,1.1,0.8c0,0,0.1,0,0.1,0.1c0.4,0.3,0.7,0.6,1.1,1l0,0
		c0.7,0.7,1.4,1.6,2,2.5c2.6,3.8,4,9,4,14.4s-1.4,10.6-4,14.4c-2.4,3.5-5.5,5.6-8.8,5.8c-2.9-0.4-5.6-2.6-7.7-6.1
		c-2.1-4-3.3-9-3.3-14.3s1.2-10.3,3.4-14.1c2-3.6,4.8-5.7,7.7-6.1C51.9,4.6,53,4.9,54.1,5.4C54.1,5.3,54.1,5.4,54.1,5.4z M40.8,8.9
		c-0.6,1.1-1.2,2.2-1.7,3.5l-2.1-1c-0.2-0.1-0.5-0.1-0.7,0.1l-1.8,1.2l-1.8-1.2c-0.2-0.1-0.6-0.1-0.8,0l-1.8,1.2l-0.7-0.5
		c0.3-0.6,0.7-1.2,1-1.7c0.4-0.6,0.9-1.2,1.4-1.8l3.4-1L37.1,9c0.2,0.2,0.6,0.2,0.8,0l1.9-1.3l1.4,0.7C41.1,8.5,40.9,8.7,40.8,8.9z
		 M29.8,14.1c0.2,0.2,0.6,0.2,0.8,0l1.8-1.2l1.9,1.3c0.2,0.2,0.6,0.2,0.8,0l1.9-1.3l1.7,0.8c-0.4,1.1-0.7,2.2-0.9,3.3l-0.3-0.3
		c-0.3-0.3-0.7-0.3-1,0l-1.7,1.7l-1.7-1.7c-0.3-0.3-0.7-0.3-1,0l-1.7,1.7l-1.7-1.7c-0.1-0.1-0.3-0.2-0.5-0.2c-0.1,0-0.2,0-0.3,0.1
		c0.3-1.1,0.7-2.2,1.2-3.2L29.8,14.1z M27.9,18.3l1.7,1.7c0.3,0.3,0.7,0.3,1,0l1.7-1.7L34,20c0.3,0.3,0.7,0.3,1,0l1.7-1.7l0.5,0.5
		c-0.3,1.6-0.4,3.3-0.5,5L35,22.6c-0.3-0.2-0.7-0.1-0.9,0.2l-1.7,1.7l-1.7-1.7c-0.3-0.3-0.7-0.3-1,0l-1.9,1.9l-1.3-0.8
		c0-1.6,0.2-3.1,0.5-4.6L27.9,18.3z M26.4,25.6l1.1,0.6c0.3,0.2,0.7,0.1,0.9-0.1l1.7-1.7l1.8,1.7c0.3,0.3,0.7,0.3,1,0l1.8-1.8
		l2.1,1.3c0,1,0.1,2,0.2,3c-0.3-0.1-0.6,0-0.7,0.2l-1.7,1.7l-1.7-1.7c-0.3-0.3-0.7-0.3-1,0l-1.7,1.7l-1.7-1.7
		c-0.1-0.1-0.4-0.2-0.6-0.2s-0.4,0.2-0.6,0.3l-0.4,0.7C26.6,28.2,26.5,26.9,26.4,25.6z M28,30.4l1.6,1.6c0.3,0.3,0.7,0.3,1,0
		l1.7-1.7l1.8,1.8c0.3,0.3,0.7,0.3,1,0l1.8-1.8l0.3,0.3c0.2,1.4,0.6,2.8,1,4.2l-0.4-0.2c-0.4-0.2-0.7-0.1-1,0.2l-1,1.5l-1.6-1.6
		c-0.3-0.3-0.7-0.3-1,0l-1.7,1.7l-1.7-1.7c-0.3-0.3-0.7-0.3-1,0l-0.5,0.5c-0.5-1.1-0.8-2.3-1.1-3.5L28,30.4z M29.4,36.3l1.7,1.7
		c0.3,0.3,0.7,0.3,1,0l1.7-1.7l1.7,1.7c0.1,0.1,0.3,0.2,0.5,0.2c0.3,0,0.5-0.1,0.6-0.4l1.1-1.7l1.2,0.6c0.5,1.4,1.2,2.7,1.9,3.9
		c0.1,0.2,0.3,0.5,0.4,0.7l-0.8,0.5l-1.8-1.2c-0.2-0.1-0.6-0.1-0.8,0L36,41.8l-1.8-1.2c-0.2-0.1-0.6-0.1-0.8,0l-1.2,0.8
		c-0.7-0.7-1.3-1.4-1.9-2.3c-0.5-0.8-1-1.6-1.4-2.5L29.4,36.3z M33.8,42.1l1.9,1.2c0.2,0.2,0.6,0.2,0.8,0l1.8-1.2l1.7,1.3
		c0.2,0.2,0.6,0.2,0.8,0l1.3-0.9c0.7,0.9,1.5,1.7,2.3,2.4h-4.6c-2.3,0-4.5-0.9-6.4-2.5L33.8,42.1z M42.1,7.1l-2-1
		c-0.2-0.1-0.5-0.1-0.7,0l-1.8,1.2l-1.8-1.2C35.6,6,35.3,6,35.1,6l-0.6,0.2c1.7-1.1,3.5-1.7,5.3-1.7h4.6C43.6,5.2,42.8,6.1,42.1,7.1
		z"/>
	<path fill="#D61B3F" d="M44.7,12.7c-1.7,3.2-2.7,7.5-2.7,12c0,4.6,1,8.9,2.7,12.1c1.8,3.3,4.3,5.2,7,5.2s5.2-1.8,7-5.2
		c1.7-3.2,2.7-7.5,2.7-12.1s-1-8.9-2.7-12.1c-1.8-3.3-4.3-5.2-7-5.2C49,7.5,46.5,9.3,44.7,12.7z M46.6,17.5c0.7,1.9,1.1,4.4,1.1,7.1
		c0,2.6-0.4,5.1-1.1,7c-0.5-2.3-0.8-4.6-0.8-7C45.8,22,46.1,19.6,46.6,17.5z M50.8,24.6c0-4.6-1.1-8.9-3-11.3
		c1.2-1.8,2.5-2.8,3.8-2.8c1.6,0,3.3,1.5,4.6,4c1.4,2.7,2.1,6.5,2.1,10.2s-0.8,7.5-2.1,10.2c-1.3,2.6-2.9,4-4.6,4
		c-1.4,0-2.8-1.1-4-3C49.6,33.7,50.8,29.3,50.8,24.6z"/>
</g>
</svg>
