<?xml version="1.0" encoding="utf-8"?>
<!-- Generator: Adobe Illustrator 18.1.0, SVG Export Plug-In . SVG Version: 6.00 Build 0)  -->
<svg version="1.1" id="Layer_10" xmlns="http://www.w3.org/2000/svg" xmlns:xlink="http://www.w3.org/1999/xlink" x="0px" y="0px"
	 viewBox="0 0 90 50" enable-background="new 0 0 90 50" xml:space="preserve">
<path fill="#0E549F" stroke="#FFFFFF" stroke-width="0.1" stroke-miterlimit="10" d="M72.1,4.2H17.9c-0.8,0-1.5,0.6-1.5,1.5v41.3
	c0,0.8,0.6,1.5,1.5,1.5h54.2c0.8,0,1.5-0.6,1.5-1.5V5.6C73.6,4.8,72.9,4.2,72.1,4.2z M65.2,42.3v3.1H24.8v-3.1H65.2z M65.2,36.3v3.1
	H24.8v-3.1H65.2z M65.2,30.3v3.1H24.8v-3.1H65.2z M65.2,24.3v3.1H24.8v-3.1H65.2z M65.2,18.3v3.1H24.8v-3.1H65.2z M66.6,15.4H23.4
	c-0.8,0-1.5,0.6-1.5,1.5v28.6h-2.5V7.1h51.3v38.3h-2.5V16.8C68.1,16,67.5,15.4,66.6,15.4z"/>
</svg>
