<?xml version="1.0" encoding="utf-8"?>
<!-- Generator: Adobe Illustrator 18.1.0, SVG Export Plug-In . SVG Version: 6.00 Build 0)  -->
<svg version="1.1" id="Layer_5" xmlns="http://www.w3.org/2000/svg" xmlns:xlink="http://www.w3.org/1999/xlink" x="0px" y="0px"
	 viewBox="0 0 90 50" enable-background="new 0 0 90 50" xml:space="preserve">
<path fill="#D61B3F" d="M62.8,32.3c-0.4,0-0.9,0-1.3,0.1l-0.1,0l0-0.1l-1.2-3l0.1,0c2.2-0.6,4.8-0.8,7.5-0.4c0.1,0,0.1,0,0.2,0
	c0.7,0,1.4-0.6,1.5-1.3c0-0.4-0.1-0.8-0.3-1.1c-0.2-0.3-0.6-0.5-1-0.6c-3.3-0.4-6.3-0.2-9,0.6l-0.1,0l0-0.1l-2.4-6.1h-2.3l0-0.1
	l-2.1-5.2h-6.5c-0.8,0-1.5,0.7-1.5,1.5c0,0.8,0.7,1.5,1.5,1.5h4.5l0.9,2.3h-1.4L49.3,21c-3.3,3.7-7.8,5.6-13.4,5.6
	c-2.3,0-4.8-0.3-7.4-1c-0.1,0-0.2,0-0.3,0l0,0l0,0c-2.2-0.8-4.5-1.5-7-1.9c-0.1,0-0.2,0-0.3,0c-0.7,0-1.3,0.5-1.5,1.2
	c-0.1,0.4,0,0.8,0.2,1.1c0.2,0.3,0.6,0.5,1,0.6c7.5,1.3,13.1,4.4,15.8,8.6l0.1,0.1l-2.5,0.9l0-0.1c-1.4-2.4-3.9-3.8-6.7-3.8
	c-4.3,0-7.8,3.5-7.8,7.8s3.5,7.8,7.8,7.8s7.8-3.5,7.8-7.8c0-0.3,0-0.7-0.1-1.1l0-0.1l2.8-1l0,0.1c0.2,0.8,0.4,1.6,0.4,2.4l0.1,1.4
	h11.6l0.3-1.1c1.3-4.8,3.7-8.3,7.2-10.2l0.1-0.1l0,0.1l1.1,2.9l-0.1,0C56.3,35,55,37.5,55,40.1c0,4.3,3.5,7.8,7.8,7.8
	s7.8-3.5,7.8-7.8S67.1,32.3,62.8,32.3z M32.1,40.1c0,2.7-2.2,4.9-4.9,4.9c-2.7,0-4.9-2.2-4.9-4.9s2.2-4.9,4.9-4.9
	c1.4,0,2.8,0.7,3.7,1.8l0.1,0.1l-0.1,0l-4.2,1.5c-0.8,0.3-1.2,1.1-0.9,1.9c0.2,0.6,0.8,1,1.4,1c0.2,0,0.3,0,0.5-0.1l4.4-1.6V40.1z
	 M56.3,27.8c-4.1,2.1-7,5.9-8.6,11.1l0,0.1H41l0-0.1c-0.1-0.5-0.2-1.1-0.4-1.8l0-0.1l2.8-1c0.8-0.3,1.2-1.1,0.9-1.9
	c-0.2-0.6-0.8-1-1.4-1c-0.2,0-0.3,0-0.5,0.1l-3,1.1l0-0.1c-0.9-1.6-2.2-3.1-3.8-4.5l-0.2-0.2l0.3,0c6.4,0.1,11.7-1.9,15.6-6.1l0,0
	h3.6l0,0.1L56.3,27.8L56.3,27.8z M62.8,45c-2.7,0-4.9-2.2-4.9-4.9c0-1.4,0.6-2.7,1.7-3.6l0.1-0.1l1.7,4.3c0.2,0.6,0.8,0.9,1.4,0.9
	c0.2,0,0.4,0,0.5-0.1c0.8-0.3,1.1-1.2,0.8-1.9l-1.7-4.3l0.1,0c0,0,0,0,0.1,0c0,0,0.1,0,0.1,0c2.7,0,4.9,2.2,4.9,4.9S65.5,45,62.8,45
	z"/>
</svg>
