<?xml version="1.0" encoding="utf-8"?>
<!-- Generator: Adobe Illustrator 18.1.0, SVG Export Plug-In . SVG Version: 6.00 Build 0)  -->
<svg version="1.1" id="Layer_10" xmlns="http://www.w3.org/2000/svg" xmlns:xlink="http://www.w3.org/1999/xlink" x="0px" y="0px"
	 viewBox="0 0 90 50" enable-background="new 0 0 90 50" xml:space="preserve">
<path fill="#D61B3F" d="M72.1,3.8H17.9c-0.8,0-1.5,0.6-1.5,1.5v41.3c0,0.8,0.6,1.5,1.5,1.5h54.2c0.8,0,1.5-0.6,1.5-1.5V5.3
	C73.6,4.4,72.9,3.8,72.1,3.8z M65.2,42v3.1H24.8V42H65.2z M65.2,36v3.1H24.8V36H65.2z M65.2,30v3.1H24.8V30H65.2z M65.2,24v3.1H24.8
	V24H65.2z M65.2,18V21H24.8V18H65.2z M66.6,15H23.4c-0.8,0-1.5,0.6-1.5,1.5v28.6h-2.5V6.7h51.3v38.3h-2.5V16.5
	C68.1,15.7,67.5,15,66.6,15z"/>
</svg>
