<?xml version="1.0" encoding="utf-8"?>
<!-- Generator: Adobe Illustrator 18.1.0, SVG Export Plug-In . SVG Version: 6.00 Build 0)  -->
<svg version="1.1" id="Layer_1" xmlns="http://www.w3.org/2000/svg" xmlns:xlink="http://www.w3.org/1999/xlink" x="0px" y="0px"
	 viewBox="0 0 45.9 43.2" enable-background="new 0 0 45.9 43.2" xml:space="preserve">
<g>
	<g>
		<path fill="#1E2D5A" d="M23,5.1l4.8,9.8l0.7,1.3l1.5,0.2L40.7,18l-7.8,7.6l-1.1,1l0.2,1.5L34,38.8l-9.6-5.1L23,33l-1.3,0.7
			l-9.6,5.1L13.9,28l0.2-1.5l-1.1-1L5.3,18l10.8-1.6l1.5-0.2l0.7-1.3L23,5.1 M23,0.3c-0.6,0-1.1,0.6-1.3,1.1l-6,12.2l-13.4,2
			c-0.7,0.1-1.5,0.4-1.5,1.2c0,0.5,0.3,0.9,0.7,1.3l9.7,9.5L8.8,41c0,0.2-0.1,0.3-0.1,0.5c0,0.7,0.3,1.3,1.1,1.3
			c0.4,0,0.7-0.1,1.1-0.3l12-6.3l12,6.3c0.3,0.2,0.7,0.3,1.1,0.3c0.8,0,1.1-0.6,1.1-1.3c0-0.2,0-0.3,0-0.5l-2.3-13.4l9.7-9.5
			c0.3-0.3,0.7-0.8,0.7-1.3c0-0.8-0.9-1.1-1.5-1.2l-13.4-2l-6-12.2C24.1,0.9,23.6,0.3,23,0.3L23,0.3z"/>
	</g>
</g>
</svg>
