<?xml version="1.0" encoding="utf-8"?>
<!-- Generator: Adobe Illustrator 18.1.0, SVG Export Plug-In . SVG Version: 6.00 Build 0)  -->
<svg version="1.1" id="Layer_1" xmlns="http://www.w3.org/2000/svg" xmlns:xlink="http://www.w3.org/1999/xlink" x="0px" y="0px"
	 viewBox="0 0 45.9 43.2" enable-background="new 0 0 45.9 43.2" xml:space="preserve">
<g>
	<g>
		<path fill="#fff" d="M44.6,18.1l-9.7,9.5L37.2,41c0,0.2,0,0.3,0,0.5c0,0.7-0.3,1.3-1.1,1.3c-0.4,0-0.8-0.1-1.1-0.3l-12-6.3
			l-12,6.3c-0.3,0.2-0.7,0.3-1.1,0.3c-0.8,0-1.1-0.6-1.1-1.3c0-0.2,0-0.3,0.1-0.5l2.3-13.4l-9.7-9.5c-0.3-0.3-0.7-0.8-0.7-1.3
			c0-0.8,0.8-1.1,1.5-1.2l13.4-2l6-12.2c0.2-0.5,0.7-1.1,1.3-1.1s1.1,0.6,1.3,1.1l6,12.2l13.4,2c0.6,0.1,1.5,0.4,1.5,1.2
			C45.3,17.3,44.9,17.7,44.6,18.1z"/>
	</g>
</g>
</svg>
